{
  "project_info": {
    "project_number": "572020727033",
    "project_id": "vpn--proxy-551d6",
    "storage_bucket": "vpn--proxy-551d6.appspot.com"
  },
  "client": [
    {
      "client_info": {
        "mobilesdk_app_id": "1:572020727033:android:54e41fe07a29d389035628",
        "android_client_info": {
          "package_name": "superunlimited.securevpn.freevpn"
        }
      },
      "oauth_client": [
        {
          "client_id": "572020727033-bohonbjsuuv1426cclqarbv2og98nf9j.apps.googleusercontent.com",
          "client_type": 3
        }
      ],
      "api_key": [
        {
          "current_key": "AIzaSyCQdUPe-N0Hu36h61P_P6Yua8cF1K_k3ZM"
        }
      ],
      "services": {
        "appinvite_service": {
          "other_platform_oauth_client": [
            {
              "client_id": "572020727033-bohonbjsuuv1426cclqarbv2og98nf9j.apps.googleusercontent.com",
              "client_type": 3
            }
          ]
        }
      }
    }
  ],
  "configuration_version": "1"
}